<svg
    xmlns="http://www.w3.org/2000/svg"
    viewBox="0 0 448 512"
    id="vector">
    <path
        id="path"
        d="M 89.6 204.5 L 89.6 320.3 C 89.6 335.7 77.5 348 62.1 348 C 46.8 348 32 335.6 32 320.3 L 32 204.5 C 32 189.4 46.8 177 62.1 177 C 77.2 177 89.6 189.4 89.6 204.5 Z M 100.4 361.5 C 100.4 377.9 113.6 391.1 130 391.1 L 149.9 391.1 L 150.2 452.2 C 150.2 489.1 205.4 488.8 205.4 452.2 L 205.4 391.1 L 242.6 391.1 L 242.6 452.2 C 242.6 488.9 298.1 489 298.1 452.2 L 298.1 391.1 L 318.3 391.1 C 334.5 391.1 347.7 377.9 347.7 361.5 L 347.7 182.1 L 100.4 182.1 L 100.4 361.5 Z M 348.4 172.4 L 99.3 172.4 C 99.3 129.6 124.9 92.4 162.9 73 L 143.8 37.7 C 141 32.8 148.1 29.7 150.5 33.9 L 169.9 69.5 C 204.8 54 244.9 54.8 278.2 69.5 L 297.5 34 C 300 29.7 307 32.9 304.2 37.8 L 285.1 73 C 322.8 92.4 348.4 129.6 348.4 172.4 Z M 177.7 116.9 C 177.7 111.2 173.1 106.4 167.2 106.4 C 161.5 106.4 157 111.2 157 116.9 C 157 122.6 161.6 127.4 167.2 127.4 C 173.1 127.4 177.7 122.6 177.7 116.9 Z M 291.1 116.9 C 291.1 111.2 286.5 106.4 280.9 106.4 C 275 106.4 270.4 111.2 270.4 116.9 C 270.4 122.6 275 127.4 280.9 127.4 C 286.5 127.4 291.1 122.6 291.1 116.9 Z M 385.9 177 C 370.8 177 358.4 189.1 358.4 204.5 L 358.4 320.3 C 358.4 335.7 370.8 348 385.9 348 C 401.3 348 416 335.6 416 320.3 L 416 204.5 C 416 189.1 401.2 177 385.9 177 Z"
        fill="none"
        stroke="#0091ea"
        stroke-width="7"/>
    <path
        id="path_1"
        d="M 215.898 290.398 L 203.383 303.406 L 203.383 338 L 189.883 338 L 189.883 235.625 L 203.383 235.625 L 203.383 286.25 L 248.875 235.625 L 265.188 235.625 L 224.898 280.836 L 268.352 338 L 252.18 338 L 215.898 290.398 Z"
        fill="#0091ea"/>
</svg>
