<svg
    xmlns="http://www.w3.org/2000/svg"
    viewBox="0 0 448 512"
    id="vector">
    <path
        id="path"
        d="M 89.6 204.5 L 89.6 320.3 C 89.6 335.7 77.5 348 62.1 348 C 46.8 348 32 335.6 32 320.3 L 32 204.5 C 32 189.4 46.8 177 62.1 177 C 77.2 177 89.6 189.4 89.6 204.5 Z M 100.4 361.5 C 100.4 377.9 113.6 391.1 130 391.1 L 149.9 391.1 L 150.2 452.2 C 150.2 489.1 205.4 488.8 205.4 452.2 L 205.4 391.1 L 242.6 391.1 L 242.6 452.2 C 242.6 488.9 298.1 489 298.1 452.2 L 298.1 391.1 L 318.3 391.1 C 334.5 391.1 347.7 377.9 347.7 361.5 L 347.7 182.1 L 100.4 182.1 L 100.4 361.5 Z M 348.4 172.4 L 99.3 172.4 C 99.3 129.6 124.9 92.4 162.9 73 L 143.8 37.7 C 141 32.8 148.1 29.7 150.5 33.9 L 169.9 69.5 C 204.8 54 244.9 54.8 278.2 69.5 L 297.5 34 C 300 29.7 307 32.9 304.2 37.8 L 285.1 73 C 322.8 92.4 348.4 129.6 348.4 172.4 Z M 177.7 116.9 C 177.7 111.2 173.1 106.4 167.2 106.4 C 161.5 106.4 157 111.2 157 116.9 C 157 122.6 161.6 127.4 167.2 127.4 C 173.1 127.4 177.7 122.6 177.7 116.9 Z M 291.1 116.9 C 291.1 111.2 286.5 106.4 280.9 106.4 C 275 106.4 270.4 111.2 270.4 116.9 C 270.4 122.6 275 127.4 280.9 127.4 C 286.5 127.4 291.1 122.6 291.1 116.9 Z M 385.9 177 C 370.8 177 358.4 189.1 358.4 204.5 L 358.4 320.3 C 358.4 335.7 370.8 348 385.9 348 C 401.3 348 416 335.6 416 320.3 L 416 204.5 C 416 189.1 401.2 177 385.9 177 Z"
        fill="none"
        stroke="#ffd600"
        stroke-width="7"/>
    <path
        id="path_1"
        d="M 157.675 284.711 L 157.47 285 L 157.675 285.289 C 170.84 303.858 195.406 316.312 223.5 316.312 C 251.594 316.312 276.16 303.858 289.325 285.289 L 289.53 285 L 289.325 284.711 C 281.083 273.085 268.371 263.858 253.13 258.583 L 252.598 259.394 C 257.292 264.498 260.069 270.86 260.069 277.75 C 260.069 294.409 243.787 308.062 223.5 308.062 C 203.213 308.062 186.931 294.409 186.931 277.75 C 186.931 273.137 188.175 268.763 190.405 264.844 C 191.348 271.439 198.072 276.438 206.056 276.438 C 214.671 276.438 221.819 270.616 221.819 263.25 C 221.819 259.645 220.091 256.397 217.328 254.033 L 217.172 253.899 L 216.968 253.914 C 191.63 255.676 169.809 267.596 157.675 284.711 Z M 147.219 279.768 L 146.813 279.48 L 147.219 279.768 C 162.475 258.25 190.97 243.812 223.5 243.812 C 256.017 243.812 284.518 258.24 299.781 279.768 L 300.189 279.479 L 299.781 279.768 C 300.91 281.361 301.5 283.168 301.5 285 C 301.5 286.832 300.91 288.638 299.781 290.232 L 300.189 290.521 L 299.781 290.232 C 284.525 311.75 256.03 326.188 223.5 326.188 C 190.983 326.188 162.482 311.76 147.219 290.232 L 146.815 290.519 L 147.219 290.232 C 146.09 288.639 145.5 286.832 145.5 285 C 145.5 283.168 146.09 281.362 147.219 279.768 Z"
        fill="none"
        stroke="#ffd600"
        stroke-width="7"/>
</svg>
