<svg
    xmlns="http://www.w3.org/2000/svg"
    viewBox="0 0 448 512"
    id="vector">
    <path
        id="path"
        d="M 89.6 204.5 L 89.6 320.3 C 89.6 335.7 77.5 348 62.1 348 C 46.8 348 32 335.6 32 320.3 L 32 204.5 C 32 189.4 46.8 177 62.1 177 C 77.2 177 89.6 189.4 89.6 204.5 Z M 100.4 361.5 C 100.4 377.9 113.6 391.1 130 391.1 L 149.9 391.1 L 150.2 452.2 C 150.2 489.1 205.4 488.8 205.4 452.2 L 205.4 391.1 L 242.6 391.1 L 242.6 452.2 C 242.6 488.9 298.1 489 298.1 452.2 L 298.1 391.1 L 318.3 391.1 C 334.5 391.1 347.7 377.9 347.7 361.5 L 347.7 182.1 L 100.4 182.1 L 100.4 361.5 Z M 348.4 172.4 L 99.3 172.4 C 99.3 129.6 124.9 92.4 162.9 73 L 143.8 37.7 C 141 32.8 148.1 29.7 150.5 33.9 L 169.9 69.5 C 204.8 54 244.9 54.8 278.2 69.5 L 297.5 34 C 300 29.7 307 32.9 304.2 37.8 L 285.1 73 C 322.8 92.4 348.4 129.6 348.4 172.4 Z M 177.7 116.9 C 177.7 111.2 173.1 106.4 167.2 106.4 C 161.5 106.4 157 111.2 157 116.9 C 157 122.6 161.6 127.4 167.2 127.4 C 173.1 127.4 177.7 122.6 177.7 116.9 Z M 291.1 116.9 C 291.1 111.2 286.5 106.4 280.9 106.4 C 275 106.4 270.4 111.2 270.4 116.9 C 270.4 122.6 275 127.4 280.9 127.4 C 286.5 127.4 291.1 122.6 291.1 116.9 Z M 385.9 177 C 370.8 177 358.4 189.1 358.4 204.5 L 358.4 320.3 C 358.4 335.7 370.8 348 385.9 348 C 401.3 348 416 335.6 416 320.3 L 416 204.5 C 416 189.1 401.2 177 385.9 177 Z"
        fill="none"
        stroke="#c51162"
        stroke-width="7"/>
    <path
        id="path_1"
        d="M 166 269.562 L 166 266.937 C 166 264.763 168.434 263 171.438 263 L 253 263 L 253 255.125 C 253 251.619 258.868 249.868 262.282 252.341 L 280.407 265.466 C 282.531 267.003 282.531 269.497 280.407 271.034 L 262.282 284.159 C 258.881 286.622 253 284.895 253 281.375 L 253 273.5 L 171.438 273.5 C 168.434 273.5 166 271.737 166 269.562 Z M 276.562 294.5 L 195 294.5 L 195 286.625 C 195 283.128 189.141 281.362 185.718 283.841 L 167.593 296.966 C 165.469 298.503 165.469 300.997 167.593 302.534 L 185.718 315.659 C 189.122 318.124 195 316.392 195 312.875 L 195 305 L 276.562 305 C 279.566 305 282 303.237 282 301.062 L 282 298.437 C 282 296.263 279.566 294.5 276.562 294.5 Z"
        fill="#c51162"/>
</svg>
